C:\work\software\netbeans\LoginManager\src\main\java\com\celestial\dbutils\DBConnector.java
C:\work\software\netbeans\LoginManager\src\main\java\com\celestial\dbutils\UserIterator.java
C:\work\software\netbeans\LoginManager\src\main\java\com\celestial\dbutils\User.java
C:\work\software\netbeans\LoginManager\src\main\java\com\celestial\dbutils\UserHandler.java
C:\work\software\netbeans\LoginManager\src\main\java\com\celestial\dbutils\MainUnit.java
C:\work\software\netbeans\LoginManager\src\main\java\com\celestial\dbutils\LoggerExample.java
C:\work\software\netbeans\LoginManager\src\main\java\com\celestial\simplemavenwebapp\TimeAndDateHandler.java
C:\work\software\netbeans\LoginManager\src\main\java\com\celestial\loginmanager\ApplicationScopeHelper.java
C:\work\software\netbeans\LoginManager\src\main\java\com\celestial\dbutils\PropertyLoader.java
